Kramer-HW6
…
#Use gather() function from tidyr to reshape your data in a way that it will have measure and value columns for house_price_index and unemploy_perc, respectively, in two columns. You should leave out remaining attributes by using ”-” in front them inside the function. Then, direct the output to a new data frame called house_reshaped. Please refer to examples we did in class.

house_reshaped <-
  gather(
  house_prices,
  key = "measure", 
  value = "value",
  -date,
  -state,
  -house_price_perc
)

house_reshaped

## # A tibble: 51,408 × 5
##    date       state   house_price_perc measure       value
##    <date>     <chr>              <dbl> <chr>         <dbl>
##  1 1976-01-01 Alabama           0.0404 unemploy_perc   6.7
##  2 1976-02-01 Alabama           0.0518 unemploy_perc   6.7
##  3 1976-03-01 Alabama           0.0593 unemploy_perc   6.6
##  4 1976-04-01 Alabama           0.0596 unemploy_perc   6.5
##  5 1976-05-01 Alabama           0.0557 unemploy_perc   6.4
##  6 1976-06-01 Alabama           0.0536 unemploy_perc   6.5
##  7 1976-07-01 Alabama           0.0574 unemploy_perc   6.6
##  8 1976-08-01 Alabama           0.0659 unemploy_perc   6.8
##  9 1976-09-01 Alabama           0.0746 unemploy_perc   6.9
## 10 1976-10-01 Alabama           0.0797 unemploy_perc   7  
## # ℹ 51,398 more rows
…
